<svg width="242" height="71" viewBox="0 0 242 71" fill="none" xmlns="http://www.w3.org/2000/svg">
<path d="M221.308 11.5898C222.172 12.087 223.149 12.3527 224.145 12.3611C225.141 12.3695 226.122 12.1204 226.993 11.6378C227.902 11.231 228.688 10.5913 229.27 9.78357C229.852 8.97582 230.211 8.02867 230.309 7.03784C230.55 5.96519 230.441 4.84355 229.998 3.83752C229.555 2.83149 228.801 1.99392 227.846 1.44775C226.95 0.83392 225.904 0.47457 224.819 0.407835C223.735 0.3411 222.653 0.569568 221.687 1.06885C220.743 1.57154 219.956 2.32563 219.413 3.2478C218.977 3.92127 218.681 4.67555 218.543 5.46582C218.404 6.25609 218.426 7.06617 218.607 7.84778C218.749 8.63384 219.065 9.37813 219.533 10.0258C220 10.6734 220.607 11.2079 221.308 11.5898Z" fill="#3C6E71"/>
<path d="M241.744 31.046C241.658 30.9254 241.544 30.8279 241.412 30.7618C241.28 30.6957 241.133 30.6631 240.986 30.6671H239.943C239.792 30.632 239.636 30.6295 239.485 30.6595C239.334 30.6895 239.191 30.7514 239.065 30.8411C238.94 30.9309 238.835 31.0463 238.757 31.1798C238.68 31.3132 238.632 31.4616 238.617 31.6151C238.17 34.5978 237.392 37.5214 236.296 40.3311C235.54 42.6831 234.106 44.7596 232.175 46.3001C232.02 46.4685 231.825 46.5954 231.609 46.6698C231.392 46.7441 231.161 46.7635 230.935 46.7259C230.709 46.6883 230.497 46.5949 230.316 46.4544C230.135 46.3139 229.993 46.1305 229.901 45.921C229.67 45.4915 229.51 45.0275 229.427 44.547C229.285 43.813 229.205 43.0685 229.19 42.3211C229.157 41.4371 229.141 40.6473 229.143 39.952V34.172C229.205 32.7193 229.252 30.8878 229.285 28.6771C229.317 26.4664 229.333 24.982 229.332 24.224C229.332 23.466 229.3 22.4237 229.237 21.097C229.171 20.5208 229.061 19.9507 228.906 19.3921C228.629 18.6298 228.193 17.9354 227.627 17.3551C227.3 16.973 226.893 16.6685 226.434 16.4637C225.975 16.2589 225.476 16.159 224.974 16.1711C224.502 16.1087 224.024 16.1087 223.553 16.1711C223.164 16.2212 222.782 16.3164 222.416 16.455C222.139 16.5634 221.87 16.69 221.611 16.8341C221.375 16.9709 221.153 17.1296 220.948 17.3081C220.726 17.4981 220.568 17.6401 220.475 17.7341C220.345 17.8777 220.233 18.0369 220.143 18.2081C220.063 18.3598 219.968 18.5027 219.859 18.6341C218.859 19.9901 218.434 24.8901 218.586 33.3341C218.213 35.6995 217.625 38.0259 216.829 40.284C216.131 42.6716 214.786 44.8196 212.944 46.4901C212.058 47.1861 211.237 46.9333 210.48 45.732C209.704 44.2148 209.253 42.5531 209.154 40.8521C208.841 38.5448 208.746 36.2132 208.869 33.888C209.248 27.4454 209.28 23.3082 208.964 21.4762C208.883 20.4572 208.496 19.4863 207.854 18.6915C207.211 17.8966 206.343 17.3149 205.364 17.023C204.883 16.9001 204.39 16.8363 203.895 16.8331C203.529 16.8232 203.163 16.855 202.805 16.9281C202.551 16.9947 202.109 17.1211 201.479 17.3071C200.848 17.4931 200.406 17.6195 200.152 17.6861C196.362 18.6975 194.183 19.2661 193.615 19.3921C193.58 18.2346 193.389 17.0872 193.047 15.981C192.692 14.9417 192.031 14.0337 191.152 13.3761C190.34 12.7386 189.34 12.3886 188.309 12.3811C187.326 12.3719 186.365 12.6701 185.561 13.2341C184.746 13.7942 184.119 14.5865 183.761 15.508C183.191 16.9378 183.191 18.5312 183.761 19.961C184.581 22.173 186.697 23.4677 190.109 23.8451V24.224C189.998 26.0953 189.744 28.3507 189.347 30.9901C189.197 31.1684 189.101 31.3849 189.068 31.6151C188.247 37.1104 186.731 41.3437 184.521 44.315C184.143 44.8907 183.64 45.373 183.049 45.7259C182.459 46.0788 181.795 46.293 181.11 46.3521C179.701 46.5179 178.274 46.2883 176.989 45.689C175.777 45.1508 174.694 44.359 173.815 43.367C171.834 41.0365 170.729 38.0882 170.689 35.0301H171.068C173.722 34.9621 176.309 34.1763 178.553 32.7562C180.8 31.3606 182.428 29.1567 183.101 26.598C183.448 25.3421 183.483 24.0203 183.202 22.7479C182.921 21.4755 182.333 20.2911 181.49 19.2981C180.338 17.9387 178.775 16.9911 177.037 16.5981C175.347 16.1852 173.575 16.2507 171.921 16.7871C170.246 17.342 168.676 18.175 167.278 19.2511C165.919 20.2491 164.789 21.5246 163.962 22.993C162.563 25.5266 161.568 28.2634 161.015 31.1041C158.493 31.3522 155.95 30.9406 153.636 29.91C154.456 27.0673 154.993 25.1406 155.247 24.13C156.573 17.6246 155.152 14.0247 150.983 13.33C149.825 13.0945 148.622 13.2338 147.549 13.7277C146.476 14.2217 145.588 15.0445 145.014 16.0771C144.146 17.3837 143.644 18.8991 143.561 20.4654C143.477 22.0317 143.815 23.5916 144.54 24.983C145.303 26.7293 146.361 28.3316 147.667 29.7201C148.045 30.0994 148.424 30.4467 148.804 30.762C148.677 31.2687 148.282 32.4375 147.62 34.2682C147.257 35.3659 146.83 36.4414 146.341 37.4891C145.014 40.2691 143.845 41.8801 142.835 42.3221C142.698 42.4287 142.533 42.4942 142.361 42.5111C142.228 42.5103 142.098 42.4777 141.982 42.4161C141.867 42.3645 141.769 42.2829 141.698 42.18C141.61 42.0425 141.531 41.9 141.461 41.753C141.366 41.564 141.286 41.391 141.224 41.232C141.162 41.073 141.082 40.8691 140.987 40.6161C140.892 40.3631 140.812 40.142 140.75 39.953C139.992 37.8063 139.344 33.8732 138.808 28.1532C138.271 22.4332 137.781 19.0697 137.339 18.0631C137.162 17.6063 136.895 17.1901 136.553 16.8399C136.211 16.4897 135.801 16.2128 135.349 16.0261C134.459 15.6251 133.475 15.4776 132.507 15.6001C131.474 15.6844 130.493 16.0849 129.696 16.7469C128.899 17.409 128.326 18.3005 128.054 19.3001C127.485 20.8155 127.327 23.2488 127.58 26.6002C127.736 28.1249 128 29.6366 128.37 31.1241C125.862 31.6668 123.318 32.0227 120.759 32.189C120.724 29.7783 120.341 27.3853 119.622 25.0841C118.759 22.1068 116.966 19.4838 114.506 17.5991C112.713 16.3291 110.539 15.7105 108.347 15.846C106.134 15.8952 104.001 16.6787 102.283 18.0731C100.874 19.2423 99.9605 20.901 99.7246 22.7161C99.4928 22.3524 99.1695 22.0558 98.7871 21.8563C98.4047 21.6567 97.9765 21.5612 97.5456 21.5792C91.8759 21.5065 86.2142 21.1268 80.5856 20.442C79.2762 18.717 77.5012 17.4021 75.4696 16.6521C74.4477 16.2308 73.3416 16.0543 72.2394 16.1366C71.1372 16.2189 70.0695 16.5577 69.1216 17.1261C68.3262 17.6116 67.7107 18.3432 67.3686 19.21C66.9638 20.0995 66.8477 21.0933 67.0366 22.0521C64.2071 22.9388 61.809 24.847 60.3096 27.4051C58.7329 30.0156 57.9433 33.0257 58.0356 36.0741C58.0356 36.2561 58.0516 36.4361 58.0596 36.6161C57.7436 37.8041 57.3746 38.9811 56.9466 40.1471C56.2253 42.5169 54.8249 44.6233 52.9186 46.2052C52.0332 46.9005 51.2119 46.6478 50.4546 45.4471C49.6907 43.9788 49.2543 42.3623 49.1756 40.7091C48.9787 39.1382 48.8995 37.5547 48.9386 35.972C49.0012 34.962 49.0642 34.1095 49.1276 33.4141C49.1276 32.4668 49.2226 31.0931 49.4126 29.2931C49.6026 27.4931 49.6972 26.1506 49.6966 25.266C49.798 23.5906 49.622 21.9101 49.1756 20.2921C48.9532 19.6326 48.5864 19.031 48.102 18.5312C47.6176 18.0314 47.0278 17.646 46.3756 17.403C43.9756 16.2657 41.5122 16.5814 38.9856 18.3501C36.3329 20.2447 33.5222 24.9188 30.5536 32.3722C30.5536 32.0568 30.6326 30.667 30.7906 28.203C30.9463 26.2803 30.9623 24.3491 30.8386 22.4242C30.7852 21.3022 30.4945 20.2043 29.9856 19.2031C29.4483 18.2545 28.7276 17.4225 27.8653 16.7555C27.0031 16.0884 26.0167 15.5998 24.9636 15.3181H24.4896C24.0349 15.2501 23.5739 15.2344 23.1156 15.2711C22.4889 15.308 21.8689 15.4195 21.2686 15.6031C19.3739 16.2351 17.5406 18.0037 15.7686 20.909C13.7877 24.3403 12.3192 28.0428 11.4096 31.899C11.2202 30.5103 11.0939 29.5627 11.0306 29.056C10.9232 27.7884 10.636 26.5427 10.1776 25.356C9.8594 24.842 9.43075 24.4053 8.92273 24.0775C8.41472 23.7497 7.84009 23.539 7.24056 23.461C6.53762 23.3359 5.81346 23.4183 5.15656 23.6981C4.59752 23.9064 4.07118 24.1936 3.59356 24.5511C3.32524 24.7542 3.0863 24.9934 2.88357 25.262C1.53009 27.0556 0.858416 29.2718 0.988565 31.515C0.988565 32.5263 1.00423 33.537 1.03557 34.547C1.0669 35.557 1.16157 36.852 1.31957 38.432C1.44443 39.8456 1.71452 41.2428 2.12557 42.6012C2.50223 43.7985 2.99386 44.9565 3.59356 46.0592C4.11794 47.092 4.96668 47.9241 6.00956 48.4281C7.11523 48.9104 8.35403 48.9943 9.51457 48.6651C9.86089 48.6008 10.1872 48.4559 10.4671 48.242C10.747 48.0282 10.9726 47.7514 11.1256 47.4342C11.7431 45.8506 12.1571 44.195 12.3576 42.5072L14.4416 33.5072C15.1458 30.6193 16.1789 27.8215 17.5206 25.169C18.8146 22.643 19.7779 21.4432 20.4106 21.5692C20.7899 21.6958 21.0109 22.4851 21.0736 23.9371C21.1324 25.5799 21.1007 27.2248 20.9786 28.8641C20.9786 29.3708 20.9472 30.4605 20.8846 32.1331C20.8219 33.8058 20.7902 35.1954 20.7896 36.3021C20.7881 37.3945 20.8512 38.4861 20.9786 39.5711C21.1008 40.6961 21.5269 41.7666 22.2111 42.6678C22.8953 43.5691 23.8119 44.267 24.8626 44.6871C26.3786 45.3191 27.8316 44.9085 29.2216 43.4552C29.5746 43.0516 29.8769 42.6061 30.1216 42.129C30.3894 41.5635 30.6112 40.9773 30.7846 40.3761C30.9231 39.8749 31.0972 39.3843 31.3056 38.908C32.1256 36.7607 32.8519 34.897 33.4846 33.317C34.3679 31.2963 35.2522 29.3383 36.1376 27.443C36.4172 26.7337 36.8361 26.0877 37.3696 25.5431C38.0002 25.1644 38.3162 25.4174 38.3176 26.3021C38.3176 26.8708 38.2069 28.8604 37.9856 32.2711C37.7642 35.6817 37.6852 37.7976 37.7486 38.619C38.1272 42.5356 39.1696 45.5517 40.8756 47.6671C42.2964 49.6057 44.3923 50.9411 46.7496 51.41C48.083 51.6767 49.4581 51.6541 50.7821 51.3436C52.106 51.0331 53.3478 50.442 54.4236 49.6102C56.5864 47.8651 58.2436 45.5735 59.2236 42.973C59.4906 43.7498 59.8017 44.5107 60.1556 45.252C61.3602 47.9459 63.5452 50.08 66.2666 51.221C68.1087 51.9808 70.1184 52.2423 72.0936 51.9791C74.0986 51.7457 76.0085 50.9948 77.6356 49.8001C80.7936 47.4001 82.9096 43.4208 83.9836 37.8621C84.6765 34.2162 84.547 30.4617 83.6046 26.8722C88.0886 26.9388 91.4679 26.9705 93.7426 26.9671C93.3243 27.836 93.0372 28.7621 92.8906 29.7152C92.6117 31.4413 92.4218 33.1805 92.3216 34.9261C92.1942 41.0541 93.9312 45.8874 97.5326 49.4261C99.6322 51.6478 102.489 53.0004 105.539 53.2161C108.605 53.487 111.653 52.5331 114.019 50.5631C116.288 48.658 117.991 46.168 118.946 43.3631C119.859 40.8289 120.433 38.1849 120.652 35.5001H120.746C123.576 35.3314 126.39 34.9493 129.163 34.357C129.229 34.607 129.296 34.8618 129.363 35.1212C130.441 39.4562 132.517 43.479 135.427 46.869C136.195 47.7251 137.15 48.3927 138.218 48.8199C139.286 49.2471 140.438 49.4224 141.585 49.3321C142.973 49.2708 144.553 48.3234 146.323 46.4901C146.638 46.1114 146.97 45.6692 147.318 45.1632C147.666 44.6572 147.966 44.215 148.218 43.837C148.469 43.4577 148.753 42.968 149.07 42.368C149.386 41.768 149.607 41.31 149.733 40.994C149.858 40.6793 150.079 40.1425 150.396 39.3831C150.582 38.894 150.803 38.4189 151.059 37.962C151.374 37.204 151.911 35.6246 152.669 33.224C154.829 34.124 157.15 34.5757 159.491 34.5511C159.861 34.5511 160.232 34.5391 160.602 34.5191C160.541 36.375 160.709 38.2311 161.102 40.046C161.678 42.9002 162.949 45.5685 164.802 47.815C166.366 49.7012 168.462 51.0718 170.818 51.7472C173.116 52.4643 175.551 52.6267 177.924 52.221C180.124 51.8545 182.212 50.9962 184.035 49.71C186.182 48.194 187.982 45.6518 189.435 42.0831C190.567 39.3464 191.444 36.5111 192.056 33.6131C192.278 33.3754 192.421 33.074 192.465 32.7511C192.969 29.4677 193.285 26.6885 193.413 24.4132L193.508 23.939C195.156 23.6028 196.772 23.1272 198.34 22.5172C194.991 40.0145 197.865 49.7734 206.962 51.794C208.285 52.095 209.661 52.0803 210.978 51.7511C212.294 51.4219 213.515 50.7874 214.542 49.899C216.807 47.9164 218.491 45.3565 219.417 42.492C219.741 44.0575 220.301 45.5646 221.078 46.962C221.661 48.0317 222.465 48.9653 223.437 49.7003C224.409 50.4353 225.526 50.9551 226.715 51.2252C227.893 51.5107 229.121 51.5312 230.309 51.2855C231.496 51.0398 232.615 50.5338 233.584 49.804C235.73 48.2267 237.53 45.6531 238.984 42.0831C240.351 38.8122 241.336 35.3946 241.921 31.898C241.955 31.7517 241.957 31.5997 241.926 31.4525C241.896 31.3053 241.833 31.1665 241.744 31.046ZM171.35 28.4881C171.619 26.9867 172.148 25.5436 172.913 24.224C173.229 23.5961 173.676 23.0433 174.223 22.6021C174.77 22.161 175.406 21.8418 176.087 21.6661C176.494 21.5246 176.937 21.5274 177.343 21.6739C177.748 21.8205 178.091 22.1018 178.314 22.471C178.589 22.9197 178.773 23.4188 178.854 23.939C178.936 24.4593 178.913 24.9906 178.788 25.502C178.55 26.762 177.859 27.8914 176.846 28.6771C175.898 29.4351 173.909 30.2243 170.877 31.045C171.002 30.4143 171.16 29.5621 171.35 28.4881ZM77.2686 41.088C76.4472 42.3546 75.5472 42.9231 74.5686 42.7931C73.5249 42.6335 72.5698 42.1142 71.8686 41.325C71.0882 40.5403 70.5037 39.5829 70.1626 38.5301C69.5774 36.7974 69.6449 34.9104 70.3526 33.224C70.6648 32.5652 71.1372 31.9952 71.7266 31.566C72.2789 31.1437 72.7729 30.65 73.1956 30.098C73.574 29.594 73.8332 29.0108 73.9536 28.3922C74.2056 27.1295 74.2372 26.496 74.0486 26.492C74.9584 26.6255 75.8771 26.6889 76.7966 26.682C77.8733 28.8416 78.517 31.1911 78.6916 33.598C79.0481 36.1833 78.5487 38.8144 77.2696 41.0892L77.2686 41.088ZM112.325 41.3722C111.377 43.5202 110.272 44.5938 109.009 44.5931C106.671 44.5931 105.25 42.5718 104.745 38.5291C104.552 36.8925 104.552 35.2388 104.745 33.6021C106.825 34.4966 109.029 35.0718 111.282 35.3082C112.292 35.4355 113.176 35.5301 113.935 35.5921C113.727 37.596 113.183 39.5505 112.325 41.3731V41.3722ZM108.061 30.3822C107.283 30.004 106.59 29.4717 106.024 28.818C105.414 28.1809 104.946 27.4226 104.65 26.5921C104.355 25.9274 104.252 25.1935 104.353 24.4735C104.453 23.7534 104.753 23.0759 105.219 22.5172C105.913 21.6332 107.146 21.3175 108.919 21.5702C109.969 21.6854 110.944 22.1728 111.667 22.9442C112.429 23.7443 112.982 24.7204 113.277 25.786C113.592 26.892 113.813 27.7131 113.94 28.2491C114.058 28.73 114.122 29.2228 114.129 29.7181V29.8121C114.191 30.4441 114.223 31.2333 114.224 32.18C112.062 32.0437 109.958 31.4301 108.062 30.3831L108.061 30.3822ZM151.406 20.244C151.373 21.002 151.326 21.6498 151.264 22.1871C151.099 23.1939 150.878 24.1903 150.601 25.172C150.477 25.914 150.286 26.6434 150.032 27.3512C149.328 26.646 148.722 25.849 148.232 24.982C147.881 24.1776 147.627 23.3348 147.474 22.471C147.293 21.2862 147.357 20.0769 147.664 18.9181C147.887 18.3258 148.263 17.8029 148.753 17.4021C148.965 17.2193 149.227 17.1036 149.505 17.0698C149.783 17.036 150.065 17.0855 150.316 17.2121C150.732 17.4489 151.038 17.8406 151.168 18.3021C151.369 18.9285 151.45 19.5874 151.407 20.244H151.406ZM188.497 19.3921C188.177 19.3189 187.88 19.1684 187.632 18.9536C187.384 18.7387 187.193 18.4662 187.076 18.1601C186.954 17.9808 186.881 17.7727 186.865 17.5566C186.848 17.3405 186.888 17.1238 186.982 16.9281C187.233 16.1701 187.643 15.7595 188.213 15.6961H188.308C189.002 15.6961 189.539 16.1697 189.919 17.117C190.191 17.9416 190.319 18.807 190.298 19.6751C189.685 19.6891 189.076 19.5931 188.498 19.3921H188.497Z" fill="url(#paint0_linear_232_5324)"/>
<path d="M103.317 61.242C103.854 61.4067 104.266 61.684 104.552 62.074C104.838 62.4553 104.981 62.9277 104.981 63.491C104.981 63.9937 104.847 64.4357 104.578 64.817C104.318 65.1897 103.941 65.48 103.447 65.688C102.962 65.896 102.39 66 101.731 66H98.2729C97.9176 66 97.6446 65.9047 97.4539 65.714C97.2633 65.5233 97.1679 65.2503 97.1679 64.895V57.94C97.1679 57.5847 97.2633 57.3117 97.4539 57.121C97.6446 56.9303 97.9176 56.835 98.2729 56.835H101.601C102.563 56.835 103.326 57.0517 103.889 57.485C104.461 57.9097 104.747 58.486 104.747 59.214C104.747 59.682 104.621 60.098 104.37 60.462C104.119 60.8173 103.768 61.0773 103.317 61.242ZM99.4949 60.436H101.198C101.649 60.436 101.978 60.3667 102.186 60.228C102.394 60.0893 102.498 59.8683 102.498 59.565C102.498 59.2443 102.394 59.0103 102.186 58.863C101.978 58.7157 101.649 58.642 101.198 58.642H99.4949V60.436ZM101.432 64.193C101.909 64.193 102.247 64.1193 102.446 63.972C102.654 63.816 102.758 63.5647 102.758 63.218C102.758 62.8713 102.654 62.6243 102.446 62.477C102.247 62.321 101.909 62.243 101.432 62.243H99.4949V64.193H101.432ZM109.275 66.104C108.573 66.104 107.953 65.9697 107.416 65.701C106.887 65.4237 106.476 65.0337 106.181 64.531C105.895 64.0283 105.752 63.439 105.752 62.763C105.752 62.087 105.895 61.502 106.181 61.008C106.476 60.5053 106.887 60.1197 107.416 59.851C107.945 59.5823 108.564 59.448 109.275 59.448C109.986 59.448 110.605 59.5823 111.134 59.851C111.663 60.1197 112.07 60.5053 112.356 61.008C112.651 61.502 112.798 62.087 112.798 62.763C112.798 63.439 112.651 64.0283 112.356 64.531C112.07 65.0337 111.663 65.4237 111.134 65.701C110.605 65.9697 109.986 66.104 109.275 66.104ZM109.275 64.375C110.098 64.375 110.51 63.8377 110.51 62.763C110.51 61.6883 110.098 61.151 109.275 61.151C108.452 61.151 108.04 61.6883 108.04 62.763C108.04 63.8377 108.452 64.375 109.275 64.375ZM117.07 66.104C116.368 66.104 115.748 65.9697 115.211 65.701C114.682 65.4237 114.271 65.0337 113.976 64.531C113.69 64.0283 113.547 63.439 113.547 62.763C113.547 62.087 113.69 61.502 113.976 61.008C114.271 60.5053 114.682 60.1197 115.211 59.851C115.74 59.5823 116.359 59.448 117.07 59.448C117.781 59.448 118.4 59.5823 118.929 59.851C119.458 60.1197 119.865 60.5053 120.151 61.008C120.446 61.502 120.593 62.087 120.593 62.763C120.593 63.439 120.446 64.0283 120.151 64.531C119.865 65.0337 119.458 65.4237 118.929 65.701C118.4 65.9697 117.781 66.104 117.07 66.104ZM117.07 64.375C117.893 64.375 118.305 63.8377 118.305 62.763C118.305 61.6883 117.893 61.151 117.07 61.151C116.247 61.151 115.835 61.6883 115.835 62.763C115.835 63.8377 116.247 64.375 117.07 64.375ZM128.024 64.206C128.249 64.4227 128.362 64.674 128.362 64.96C128.362 65.246 128.258 65.5017 128.05 65.727C127.851 65.9523 127.608 66.065 127.322 66.065C127.079 66.065 126.837 65.9567 126.594 65.74L123.955 63.231V64.986C123.955 65.3413 123.842 65.61 123.617 65.792C123.4 65.974 123.127 66.065 122.798 66.065C122.469 66.065 122.191 65.974 121.966 65.792C121.749 65.61 121.641 65.3413 121.641 64.986V57.849C121.641 57.4937 121.749 57.225 121.966 57.043C122.191 56.861 122.469 56.77 122.798 56.77C123.127 56.77 123.4 56.861 123.617 57.043C123.842 57.225 123.955 57.4937 123.955 57.849V62.256L126.36 59.812C126.577 59.5867 126.828 59.474 127.114 59.474C127.391 59.474 127.634 59.5823 127.842 59.799C128.059 60.007 128.167 60.2453 128.167 60.514C128.167 60.7827 128.054 61.0297 127.829 61.255L126.412 62.659L128.024 64.206ZM137.179 60.124C137.274 59.9073 137.404 59.747 137.569 59.643C137.733 59.539 137.915 59.487 138.115 59.487C138.401 59.487 138.656 59.5823 138.882 59.773C139.107 59.9637 139.22 60.1933 139.22 60.462C139.22 60.6093 139.185 60.7523 139.116 60.891L135.671 67.794C135.567 68.0107 135.428 68.171 135.255 68.275C135.09 68.379 134.908 68.431 134.709 68.431C134.423 68.431 134.167 68.3357 133.942 68.145C133.725 67.963 133.617 67.7377 133.617 67.469C133.617 67.3217 133.656 67.17 133.734 67.014L134.579 65.311L132.369 60.891C132.299 60.735 132.265 60.5963 132.265 60.475C132.265 60.1977 132.386 59.9637 132.629 59.773C132.871 59.5737 133.144 59.474 133.448 59.474C133.656 59.474 133.846 59.5303 134.02 59.643C134.202 59.747 134.34 59.9073 134.436 60.124L135.814 63.114L137.179 60.124ZM143.019 66.104C142.317 66.104 141.697 65.9697 141.16 65.701C140.631 65.4237 140.22 65.0337 139.925 64.531C139.639 64.0283 139.496 63.439 139.496 62.763C139.496 62.087 139.639 61.502 139.925 61.008C140.22 60.5053 140.631 60.1197 141.16 59.851C141.689 59.5823 142.308 59.448 143.019 59.448C143.73 59.448 144.349 59.5823 144.878 59.851C145.407 60.1197 145.814 60.5053 146.1 61.008C146.395 61.502 146.542 62.087 146.542 62.763C146.542 63.439 146.395 64.0283 146.1 64.531C145.814 65.0337 145.407 65.4237 144.878 65.701C144.349 65.9697 143.73 66.104 143.019 66.104ZM143.019 64.375C143.842 64.375 144.254 63.8377 144.254 62.763C144.254 61.6883 143.842 61.151 143.019 61.151C142.196 61.151 141.784 61.6883 141.784 62.763C141.784 63.8377 142.196 64.375 143.019 64.375ZM152.881 59.474C153.236 59.474 153.518 59.5693 153.726 59.76C153.934 59.9507 154.038 60.2107 154.038 60.54V65.038C154.038 65.3413 153.93 65.5927 153.713 65.792C153.496 65.9827 153.215 66.078 152.868 66.078C152.556 66.078 152.3 65.9957 152.101 65.831C151.902 65.6577 151.798 65.428 151.789 65.142C151.59 65.454 151.334 65.6923 151.022 65.857C150.719 66.0217 150.368 66.104 149.969 66.104C149.146 66.104 148.535 65.8787 148.136 65.428C147.737 64.9687 147.538 64.2753 147.538 63.348V60.54C147.538 60.2107 147.642 59.9507 147.85 59.76C148.058 59.5693 148.34 59.474 148.695 59.474C149.05 59.474 149.332 59.5693 149.54 59.76C149.748 59.9507 149.852 60.2107 149.852 60.54V63.4C149.852 64.024 150.121 64.336 150.658 64.336C150.97 64.336 151.226 64.2233 151.425 63.998C151.624 63.7727 151.724 63.478 151.724 63.114V60.54C151.724 60.2107 151.828 59.9507 152.036 59.76C152.244 59.5693 152.526 59.474 152.881 59.474ZM159.441 59.474C159.736 59.448 159.97 59.5173 160.143 59.682C160.316 59.838 160.403 60.072 160.403 60.384C160.403 60.7307 160.321 60.982 160.156 61.138C160 61.294 159.714 61.3937 159.298 61.437L158.908 61.476C158.475 61.528 158.163 61.6667 157.972 61.892C157.79 62.1087 157.699 62.4077 157.699 62.789V65.012C157.699 65.3673 157.586 65.636 157.361 65.818C157.144 65.9913 156.871 66.078 156.542 66.078C156.213 66.078 155.935 65.9913 155.71 65.818C155.493 65.636 155.385 65.3673 155.385 65.012V60.514C155.385 60.1847 155.493 59.929 155.71 59.747C155.935 59.565 156.204 59.474 156.516 59.474C156.837 59.474 157.092 59.5607 157.283 59.734C157.482 59.9073 157.582 60.15 157.582 60.462V60.709C157.721 60.3277 157.946 60.033 158.258 59.825C158.579 59.617 158.912 59.5043 159.259 59.487L159.441 59.474ZM172.715 59.448C173.417 59.448 173.959 59.6603 174.34 60.085C174.721 60.501 174.912 61.2073 174.912 62.204V65.012C174.912 65.3673 174.799 65.636 174.574 65.818C174.357 65.9913 174.084 66.078 173.755 66.078C173.426 66.078 173.148 65.9913 172.923 65.818C172.706 65.636 172.598 65.3673 172.598 65.012V62.152C172.598 61.8053 172.537 61.5627 172.416 61.424C172.295 61.2853 172.117 61.216 171.883 61.216C171.58 61.216 171.337 61.3243 171.155 61.541C170.973 61.7577 170.882 62.0567 170.882 62.438V65.012C170.882 65.3673 170.774 65.636 170.557 65.818C170.34 65.9913 170.063 66.078 169.725 66.078C169.396 66.078 169.118 65.9913 168.893 65.818C168.676 65.636 168.568 65.3673 168.568 65.012V62.152C168.568 61.8053 168.507 61.5627 168.386 61.424C168.265 61.2853 168.087 61.216 167.853 61.216C167.55 61.216 167.307 61.3243 167.125 61.541C166.952 61.7577 166.865 62.0567 166.865 62.438V65.012C166.865 65.3673 166.752 65.636 166.527 65.818C166.31 65.9913 166.037 66.078 165.708 66.078C165.379 66.078 165.101 65.9913 164.876 65.818C164.659 65.636 164.551 65.3673 164.551 65.012V60.514C164.551 60.176 164.664 59.9203 164.889 59.747C165.123 59.565 165.4 59.474 165.721 59.474C166.024 59.474 166.276 59.5563 166.475 59.721C166.683 59.877 166.791 60.1067 166.8 60.41C167.225 59.7687 167.875 59.448 168.75 59.448C169.677 59.448 170.297 59.825 170.609 60.579C170.826 60.2323 171.116 59.9593 171.48 59.76C171.844 59.552 172.256 59.448 172.715 59.448ZM179.442 66.104C178.74 66.104 178.12 65.9697 177.583 65.701C177.054 65.4237 176.643 65.0337 176.348 64.531C176.062 64.0283 175.919 63.439 175.919 62.763C175.919 62.087 176.062 61.502 176.348 61.008C176.643 60.5053 177.054 60.1197 177.583 59.851C178.112 59.5823 178.731 59.448 179.442 59.448C180.153 59.448 180.772 59.5823 181.301 59.851C181.83 60.1197 182.237 60.5053 182.523 61.008C182.818 61.502 182.965 62.087 182.965 62.763C182.965 63.439 182.818 64.0283 182.523 64.531C182.237 65.0337 181.83 65.4237 181.301 65.701C180.772 65.9697 180.153 66.104 179.442 66.104ZM179.442 64.375C180.265 64.375 180.677 63.8377 180.677 62.763C180.677 61.6883 180.265 61.151 179.442 61.151C178.619 61.151 178.207 61.6883 178.207 62.763C178.207 63.8377 178.619 64.375 179.442 64.375ZM188.15 60.124C188.246 59.9073 188.376 59.747 188.54 59.643C188.714 59.539 188.9 59.487 189.099 59.487C189.385 59.487 189.637 59.5823 189.853 59.773C190.079 59.9637 190.191 60.1933 190.191 60.462C190.191 60.6093 190.157 60.7523 190.087 60.891L187.812 65.415C187.708 65.6317 187.557 65.8007 187.357 65.922C187.167 66.0347 186.954 66.091 186.72 66.091C186.486 66.091 186.27 66.0347 186.07 65.922C185.871 65.8007 185.719 65.6317 185.615 65.415L183.34 60.891C183.271 60.735 183.236 60.5963 183.236 60.475C183.236 60.1977 183.353 59.9637 183.587 59.773C183.83 59.5737 184.107 59.474 184.419 59.474C184.627 59.474 184.818 59.5303 184.991 59.643C185.173 59.747 185.312 59.9073 185.407 60.124L186.785 63.101L188.15 60.124ZM195.967 63.946C196.166 63.946 196.326 64.024 196.448 64.18C196.578 64.336 196.643 64.5397 196.643 64.791C196.643 65.1377 196.474 65.402 196.136 65.584C195.841 65.7313 195.49 65.857 195.083 65.961C194.684 66.0563 194.316 66.104 193.978 66.104C193.267 66.104 192.647 65.9697 192.119 65.701C191.59 65.4323 191.183 65.0467 190.897 64.544C190.611 64.0413 190.468 63.452 190.468 62.776C190.468 62.1347 190.602 61.5627 190.871 61.06C191.148 60.5487 191.529 60.1543 192.015 59.877C192.509 59.591 193.063 59.448 193.679 59.448C194.277 59.448 194.801 59.578 195.252 59.838C195.702 60.098 196.049 60.4663 196.292 60.943C196.543 61.4197 196.669 61.9787 196.669 62.62C196.669 62.8193 196.621 62.9753 196.526 63.088C196.439 63.192 196.309 63.244 196.136 63.244H192.704C192.764 63.66 192.899 63.959 193.107 64.141C193.315 64.323 193.622 64.414 194.03 64.414C194.246 64.414 194.446 64.3923 194.628 64.349C194.81 64.297 195.013 64.2277 195.239 64.141C195.369 64.089 195.494 64.0457 195.616 64.011C195.746 63.9677 195.863 63.946 195.967 63.946ZM193.744 61.008C193.44 61.008 193.198 61.1077 193.016 61.307C192.834 61.4977 192.725 61.7793 192.691 62.152H194.732C194.68 61.3893 194.35 61.008 193.744 61.008ZM204.668 66.104C203.966 66.104 203.346 65.9697 202.809 65.701C202.28 65.4237 201.868 65.0337 201.574 64.531C201.288 64.0283 201.145 63.439 201.145 62.763C201.145 62.087 201.288 61.502 201.574 61.008C201.868 60.5053 202.28 60.1197 202.809 59.851C203.337 59.5823 203.957 59.448 204.668 59.448C205.378 59.448 205.998 59.5823 206.527 59.851C207.055 60.1197 207.463 60.5053 207.749 61.008C208.043 61.502 208.191 62.087 208.191 62.763C208.191 63.439 208.043 64.0283 207.749 64.531C207.463 65.0337 207.055 65.4237 206.527 65.701C205.998 65.9697 205.378 66.104 204.668 66.104ZM204.668 64.375C205.491 64.375 205.903 63.8377 205.903 62.763C205.903 61.6883 205.491 61.151 204.668 61.151C203.844 61.151 203.433 61.6883 203.433 62.763C203.433 63.8377 203.844 64.375 204.668 64.375ZM213.542 59.448C214.304 59.448 214.872 59.6777 215.244 60.137C215.617 60.5877 215.804 61.2767 215.804 62.204V65.012C215.804 65.3413 215.7 65.6013 215.492 65.792C215.284 65.9827 215.002 66.078 214.647 66.078C214.291 66.078 214.01 65.9827 213.802 65.792C213.594 65.6013 213.49 65.3413 213.49 65.012V62.308C213.49 61.9267 213.42 61.6493 213.282 61.476C213.152 61.3027 212.952 61.216 212.684 61.216C212.337 61.216 212.06 61.3287 211.852 61.554C211.652 61.7707 211.553 62.0653 211.553 62.438V65.012C211.553 65.3413 211.449 65.6013 211.241 65.792C211.033 65.9827 210.751 66.078 210.396 66.078C210.04 66.078 209.759 65.9827 209.551 65.792C209.343 65.6013 209.239 65.3413 209.239 65.012V60.514C209.239 60.2107 209.347 59.9637 209.564 59.773C209.78 59.5737 210.062 59.474 210.409 59.474C210.738 59.474 210.998 59.565 211.189 59.747C211.388 59.929 211.488 60.1673 211.488 60.462C211.713 60.1327 212.003 59.8813 212.359 59.708C212.714 59.5347 213.108 59.448 213.542 59.448ZM218.267 66.078C217.937 66.078 217.66 65.9913 217.435 65.818C217.218 65.636 217.11 65.3673 217.11 65.012V57.849C217.11 57.4937 217.218 57.225 217.435 57.043C217.66 56.861 217.937 56.77 218.267 56.77C218.596 56.77 218.869 56.861 219.086 57.043C219.311 57.225 219.424 57.4937 219.424 57.849V65.012C219.424 65.3673 219.311 65.636 219.086 65.818C218.869 65.9913 218.596 66.078 218.267 66.078ZM221.923 66.078C221.594 66.078 221.316 65.9913 221.091 65.818C220.874 65.636 220.766 65.3673 220.766 65.012V60.54C220.766 60.1847 220.874 59.9203 221.091 59.747C221.316 59.565 221.594 59.474 221.923 59.474C222.252 59.474 222.525 59.565 222.742 59.747C222.967 59.9203 223.08 60.1847 223.08 60.54V65.012C223.08 65.3673 222.967 65.636 222.742 65.818C222.525 65.9913 222.252 66.078 221.923 66.078ZM221.923 58.564C221.533 58.564 221.221 58.4643 220.987 58.265C220.762 58.057 220.649 57.784 220.649 57.446C220.649 57.108 220.762 56.8393 220.987 56.64C221.221 56.4407 221.533 56.341 221.923 56.341C222.304 56.341 222.612 56.4407 222.846 56.64C223.08 56.8393 223.197 57.108 223.197 57.446C223.197 57.784 223.08 58.057 222.846 58.265C222.621 58.4643 222.313 58.564 221.923 58.564ZM228.725 59.448C229.488 59.448 230.055 59.6777 230.428 60.137C230.801 60.5877 230.987 61.2767 230.987 62.204V65.012C230.987 65.3413 230.883 65.6013 230.675 65.792C230.467 65.9827 230.185 66.078 229.83 66.078C229.475 66.078 229.193 65.9827 228.985 65.792C228.777 65.6013 228.673 65.3413 228.673 65.012V62.308C228.673 61.9267 228.604 61.6493 228.465 61.476C228.335 61.3027 228.136 61.216 227.867 61.216C227.52 61.216 227.243 61.3287 227.035 61.554C226.836 61.7707 226.736 62.0653 226.736 62.438V65.012C226.736 65.3413 226.632 65.6013 226.424 65.792C226.216 65.9827 225.934 66.078 225.579 66.078C225.224 66.078 224.942 65.9827 224.734 65.792C224.526 65.6013 224.422 65.3413 224.422 65.012V60.514C224.422 60.2107 224.53 59.9637 224.747 59.773C224.964 59.5737 225.245 59.474 225.592 59.474C225.921 59.474 226.181 59.565 226.372 59.747C226.571 59.929 226.671 60.1673 226.671 60.462C226.896 60.1327 227.187 59.8813 227.542 59.708C227.897 59.5347 228.292 59.448 228.725 59.448ZM237.493 63.946C237.693 63.946 237.853 64.024 237.974 64.18C238.104 64.336 238.169 64.5397 238.169 64.791C238.169 65.1377 238 65.402 237.662 65.584C237.368 65.7313 237.017 65.857 236.609 65.961C236.211 66.0563 235.842 66.104 235.504 66.104C234.794 66.104 234.174 65.9697 233.645 65.701C233.117 65.4323 232.709 65.0467 232.423 64.544C232.137 64.0413 231.994 63.452 231.994 62.776C231.994 62.1347 232.129 61.5627 232.397 61.06C232.675 60.5487 233.056 60.1543 233.541 59.877C234.035 59.591 234.59 59.448 235.205 59.448C235.803 59.448 236.328 59.578 236.778 59.838C237.229 60.098 237.576 60.4663 237.818 60.943C238.07 61.4197 238.195 61.9787 238.195 62.62C238.195 62.8193 238.148 62.9753 238.052 63.088C237.966 63.192 237.836 63.244 237.662 63.244H234.23C234.291 63.66 234.425 63.959 234.633 64.141C234.841 64.323 235.149 64.414 235.556 64.414C235.773 64.414 235.972 64.3923 236.154 64.349C236.336 64.297 236.54 64.2277 236.765 64.141C236.895 64.089 237.021 64.0457 237.142 64.011C237.272 63.9677 237.389 63.946 237.493 63.946ZM235.27 61.008C234.967 61.008 234.724 61.1077 234.542 61.307C234.36 61.4977 234.252 61.7793 234.217 62.152H236.258C236.206 61.3893 235.877 61.008 235.27 61.008Z" fill="#398F94"/>
<defs>
<linearGradient id="paint0_linear_232_5324" x1="0.972656" y1="32.8211" x2="241.948" y2="32.8211" gradientUnits="userSpaceOnUse">
<stop stop-color="#2DEAAD"/>
<stop offset="0.005" stop-color="#2DE9AC"/>
<stop offset="0.479" stop-color="#35A78C"/>
<stop offset="0.823" stop-color="#3A7D78"/>
<stop offset="1" stop-color="#3C6E71"/>
</linearGradient>
</defs>
</svg>
