<svg xmlns="http://www.w3.org/2000/svg" xmlns:xlink="http://www.w3.org/1999/xlink" width="592" height="311" viewBox="0 0 592 311">
  <defs>
    <clipPath id="clip-path">
      <rect id="Rectangle_7833" data-name="Rectangle 7833" width="597.163" height="293.779" fill="none"/>
    </clipPath>
    <clipPath id="clip-me_logo">
      <rect width="592" height="311"/>
    </clipPath>
  </defs>
  <g id="me_logo" clip-path="url(#clip-me_logo)">
    <g id="Group_15800" data-name="Group 15800" transform="translate(-3 9)">
      <g id="Group_15647" data-name="Group 15647" transform="translate(0 0)" clip-path="url(#clip-path)">
        <path id="Path_11700" data-name="Path 11700" d="M73.8,280.126a71.663,71.663,0,0,1-15.532-1.714c-38.9-8.689-64.32-49.527-55.52-89.171l11.466-51.6A75.016,75.016,0,0,1,26.18,110.495,41.029,41.029,0,0,1,25.059,88.75L31.47,59.883A75.974,75.974,0,0,1,64.725,12.6,73.316,73.316,0,0,1,104.068,1a71.24,71.24,0,0,1,15.5,1.707C144.2,8.2,164.629,27.28,172.886,52.015a53.82,53.82,0,0,1,23.8,8.22c12.118-6.257,25.885-9.429,40.933-9.429,16.785,0,31.695,4.03,44.3,11.964,1.458.916,2.894,1.9,4.293,2.931q2.539-1.67,5.216-3.187a91.872,91.872,0,0,1,45.644-11.708c34,0,53.154,14.785,63.235,27.189.476.586.945,1.187,1.414,1.81a102.981,102.981,0,0,1,20.141-15.21c16.639-9.583,35.775-14.433,56.883-14.433,31.445,0,57.183,10.484,76.489,31.174,18.771,20.111,28.288,46.729,28.288,79.112a41.173,41.173,0,0,1-10.748,28.346,45.932,45.932,0,0,1,4.506,8.975,48.428,48.428,0,0,1,.234,33.387c-2.821,8.081-9.371,19.445-24.566,27.614a125.835,125.835,0,0,1-32.676,12.067,150.768,150.768,0,0,1-32.786,3.78c-23.328,0-44.054-4.484-61.616-13.334a102.873,102.873,0,0,1-14.69-9.041A47.7,47.7,0,0,1,405.5,259.3c-6.806,6.99-19.1,15.32-38.955,15.32-24.852,0-43.036-12.257-50.362-32.559-7.283,20.3-25.35,32.559-50.055,32.559-19.672,0-31.988-8.184-38.853-15.056a49.618,49.618,0,0,1-11.393-17.8c-7.217,20.485-25.342,32.859-50.172,32.859-16.756,0-30.735-5.568-40.3-15.869a74.737,74.737,0,0,1-11.188,9.048A73.286,73.286,0,0,1,73.8,280.126" transform="translate(6.32 6.326)"/>
        <path id="Path_11701" data-name="Path 11701" d="M110.394,14.653A64.388,64.388,0,0,1,124.3,16.184c24.632,5.5,43.2,25.357,49.322,49.088,11.686.41,21.511,3.832,28.808,9.986.593-.352,1.2-.7,1.81-1.048,11.591-6.469,24.947-9.744,39.7-9.744,15.386,0,28.969,3.641,40.391,10.836a61.82,61.82,0,0,1,7.913,5.9,80.166,80.166,0,0,1,9.1-5.971,84.566,84.566,0,0,1,42.047-10.763c31.123,0,48.472,13.3,57.55,24.478a67.765,67.765,0,0,1,6.008,8.938,98.166,98.166,0,0,1,24.881-20.617c15.518-8.924,33.424-13.451,53.227-13.451,29.335,0,53.271,9.708,71.14,28.845,17.459,18.712,26.317,43.644,26.317,74.115,0,10.382-4.264,20.829-13.386,27.408a38.2,38.2,0,0,1,7.612,12.484,41.237,41.237,0,0,1,.176,28.4c-2.4,6.858-8.015,16.529-21.115,23.569a118.546,118.546,0,0,1-30.808,11.371,143.421,143.421,0,0,1-31.189,3.6c-22.163,0-41.79-4.22-58.319-12.55a99.686,99.686,0,0,1-20.28-13.7,42.436,42.436,0,0,1-8.631,13.144c-5.832,5.978-16.411,13.107-33.709,13.107-28.742,0-46.6-17.979-46.6-46.919v-71.91a48.575,48.575,0,0,0-.623-8.462c-2.865.088-3.473.85-3.964,1.458-.894,1.114-2.96,4.689-2.96,13.8V226.7c0,28.94-17.73,46.919-46.274,46.919-17.159,0-27.789-7.019-33.673-12.909s-12.924-16.573-12.924-34.01v-71.91a43.592,43.592,0,0,0-.674-8.462c-2.821.1-3.421.85-3.912,1.458-.887,1.114-2.96,4.689-2.96,13.8V226.7c0,28.94-17.73,46.919-46.274,46.919-18.265,0-32.112-7.283-39.79-20.009a68.725,68.725,0,0,1-15.737,14.4,65.911,65.911,0,0,1-36.383,11.114,64.424,64.424,0,0,1-13.942-1.539c-35.021-7.825-57.9-44.655-49.96-80.431l11.466-51.6a68.321,68.321,0,0,1,13.107-27.592,34.027,34.027,0,0,1-2.257-21.306L44.946,67.8A68.62,68.62,0,0,1,74.978,25.108a66.038,66.038,0,0,1,35.416-10.455m0-14.653A80.614,80.614,0,0,0,67.116,12.748,83.3,83.3,0,0,0,30.645,64.627L24.234,93.486a48.012,48.012,0,0,0,.293,22.075,82.221,82.221,0,0,0-11.151,26.822L1.91,193.977c-9.656,43.52,18.309,88.358,61.074,97.912a79.088,79.088,0,0,0,17.137,1.89,81.857,81.857,0,0,0,51.5-18.749c10.5,8.631,24.353,13.239,40.413,13.239,22.075,0,39.768-9.078,50.282-24.427a56.029,56.029,0,0,0,6.1,7.231c7.847,7.847,21.855,17.2,44.032,17.2,21.936,0,39.534-8.96,50.077-24.126,10.594,15.166,28.288,24.126,50.341,24.126,22.4,0,36.4-9.532,44.2-17.532.7-.711,1.37-1.436,2.022-2.183a109.162,109.162,0,0,0,9.8,5.6c18.6,9.371,40.442,14.118,64.92,14.118a158.063,158.063,0,0,0,34.383-3.956,133.084,133.084,0,0,0,34.6-12.792c17.217-9.261,24.712-22.309,27.958-31.629a55.706,55.706,0,0,0-.286-38.369,54.464,54.464,0,0,0-2.5-5.656,49.059,49.059,0,0,0,9.2-29.094c0-34.3-10.184-62.6-30.259-84.108-20.749-22.229-48.289-33.5-81.852-33.5-22.4,0-42.765,5.187-60.532,15.408a108.606,108.606,0,0,0-15.767,11.063c-11.8-12.6-32.112-25.819-65.367-25.819a99.075,99.075,0,0,0-49.242,12.646c-.476.271-.945.542-1.414.813l-.593-.374c-13.8-8.682-30.009-13.085-48.2-13.085a96.771,96.771,0,0,0-40.56,8.418,61.251,61.251,0,0,0-18.793-6.506c-9.913-25.035-31.438-44.113-57.1-49.842A78.7,78.7,0,0,0,110.394,0" transform="translate(0.002 -0.001)" fill="#fff"/>
        <path id="Path_11702" data-name="Path 11702" d="M44.739,177q-24.617,0-24.617-24.939v-115q0-24.606,23.972-24.61T68.067,37.06v.974A50.949,50.949,0,0,1,87.658,18.758q12.473-6.957,28.991-6.96,16.836,0,28.669,7.451T163.3,41.917a53.309,53.309,0,0,1,21.54-22.185A62.585,62.585,0,0,1,216.092,11.8q27.211,0,40.494,16.36t13.283,50.37v73.529q0,11.99-6.323,18.463T245.574,177q-24.628,0-24.624-24.939V80.147q0-15.869-5.019-23.159t-17-7.29q-13.935,0-21.7,9.715t-7.781,27.533v65.111q0,24.947-24.287,24.939-11.66,0-18.14-6.477t-6.477-18.463V80.147q0-15.869-5.187-23.159T98.508,49.7q-13.924,0-21.7,9.715T69.034,86.946v65.111Q69.034,177,44.739,177" transform="translate(127.302 74.64)" fill="#fff"/>
        <path id="Path_11703" data-name="Path 11703" d="M145.44,177.553q-28.189,0-48.428-10.2a73.124,73.124,0,0,1-31.094-28.83Q55.06,119.9,55.067,94.632q0-24.606,10.521-43.241a76.314,76.314,0,0,1,28.83-29.152q18.3-10.528,42.274-10.528,34.662,0,55.066,21.862t20.4,59.118q0,12.309-15.225,12.309h-95.23q2.594,18.782,13.767,27.372t30.933,8.579a100.044,100.044,0,0,0,17.657-1.78,69.747,69.747,0,0,0,18.946-6.315q9.4-4.528,15.877-1.78a15.665,15.665,0,0,1,8.9,9.231,19.125,19.125,0,0,1,0,13.444q-2.429,6.968-10.851,11.5a95.961,95.961,0,0,1-25.1,9.231,121.042,121.042,0,0,1-26.4,3.077M138.633,44.1q-15.551,0-25.1,9.393T101.708,79.729h69.968Q169.731,44.112,138.633,44.1" transform="translate(348.382 74.083)" fill="#fff"/>
        <path id="Path_11704" data-name="Path 11704" d="M67.962,6a43.206,43.206,0,0,0-32.735,6.022,46.483,46.483,0,0,0-20.375,28.9L8.441,69.8A12.115,12.115,0,0,0,17.49,84.288a11.837,11.837,0,0,0,9.092-1.7,12.277,12.277,0,0,0,5.209-7.6l6.4-28.866a21.519,21.519,0,0,1,9.239-13.3A19.7,19.7,0,0,1,62.658,29.8c10.777,2.4,17.759,13.95,15.261,25.211L66.394,106.92a21.591,21.591,0,0,1-9.107,13.144,19.8,19.8,0,0,1-15.29,2.9,11.714,11.714,0,0,0-8.938,1.583,12.239,12.239,0,0,0,3.634,22.207,43.065,43.065,0,0,0,9.437,1.048,43.538,43.538,0,0,0,24.082-7.348,46,46,0,0,0,19.584-28.647l11.466-51.593C106.624,36.058,91.377,11.228,67.962,6" transform="translate(51.556 31.631)" fill="#fff"/>
        <path id="Path_11705" data-name="Path 11705" d="M89.865,79.12A11.746,11.746,0,0,0,80.927,80.7a12.185,12.185,0,0,0-5.385,7.715l-6.4,28.852a21.759,21.759,0,0,1-9.554,13.517A19.745,19.745,0,0,1,44.668,133.6c-10.77-2.41-17.752-13.957-15.254-25.218L40.88,56.767A21.541,21.541,0,0,1,50.346,43.14a19.734,19.734,0,0,1,15-2.7,11.7,11.7,0,0,0,9.107-1.692,12.211,12.211,0,0,0,5.209-7.6,12.083,12.083,0,0,0-9.019-14.492A43.324,43.324,0,0,0,37.8,22.508,45.922,45.922,0,0,0,17.538,51.573L6.072,103.181c-5.363,24.156,9.883,48.978,33.3,54.209a42.029,42.029,0,0,0,9.143,1.011,44.036,44.036,0,0,0,24.28-7.473,45.97,45.97,0,0,0,19.679-28.456L98.884,93.62a12.1,12.1,0,0,0-9.019-14.5" transform="translate(31.608 98.745)" fill="#fff"/>
      </g>
    </g>
  </g>
</svg>
